{
	"stm32_0":{
		"base":"mach",
		"class":"stm32",
		"cortex_m3_0":{
			"base":"cpu",
			"class":"cortex_m3",
			"memory_space":["iface", "memory_space_0"]
		},
		"memory_space_0":{
			"base":"device",
			"class":"memory_space",
			"memory_space":[
				[1,"iface", "ram0", "0x0", "0x10000000"],
				[5,"iface", "core_0_uart_0", "0x7f005000", "0x3c"]
			]
		},
		"image0": {
			"base": "device",
			"class": "image",
			"size": ["uinteger", "0x10000000"]
		},
		"ram0": {
			"base": "device",
			"class": "ram",
			"memory_space": ["iface", "image0"]
		},
		"core_0_uart_0": {
			"base": "device",
			"class": "uart_s3c6410",
			"rfifo":["uinteger", "256"],
			"skyeye_uart_intf":["iface", "uart_term0"]
		},
		"uart_term0": {
			"base": "device",
			"class": "uart_term"
		}
	}
}
